/* XPM */
static char *hide_active_png[] = {
/* columns rows colors chars-per-pixel */
"36 36 15 1 ",
"  c #E0DDDA",
". c #DFDCD9",
"X c #DFDCD8",
"o c #DFDBD8",
"O c #DEDBD7",
"+ c #DEDAD7",
"@ c #DDDAD6",
"# c #2E3436",
"$ c #DDD9D6",
"% c #F7F6F6",
"& c #DCD9D5",
"* c #DCD8D5",
"= c #DCD8D4",
"- c #DBD7D3",
"; c white",
/* pixels */
"                                    ",
"                                    ",
"                                    ",
"                                    ",
"....................................",
"....................................",
"....................................",
"XXXXXXXXXXXXXXXXXXXXXXXXXXXXXXXXXXXX",
"XXXXXXXXXXXXXXXXXXXXXXXXXXXXXXXXXXXX",
"oooooooooooooooooooooooooooooooooooo",
"oooooooooooooooooooooooooooooooooooo",
"oooooooooooooooooooooooooooooooooooo",
"OOOOOOOOOOOOOOOOOOOOOOOOOOOOOOOOOOOO",
"OOOOOOOOOOOOOOOOOOOOOOOOOOOOOOOOOOOO",
"OOOOOOOOOOOOOOOOOOOOOOOOOOOOOOOOOOOO",
"++++++++++++++++++++++++++++++++++++",
"++++++++++++++++++++++++++++++++++++",
"++++++++++++++++++++++++++++++++++++",
"@@@@@@@@@@@@@@@@@@@@@@@@@@@@@@@@@@@@",
"@@@@@@@@@@@@@@@@@@@@@@@@@@@@@@@@@@@@",
"@@@@@@@@@@@@@@########@@@@@@@@@@@@@@",
"$$$$$$$$$$$$$$########$$$$$$$$$$$$$$",
"$$$$$$$$$$$$$$%%%%%%%%$$$$$$$$$$$$$$",
"$$$$$$$$$$$$$$$$$$$$$$$$$$$$$$$$$$$$",
"&&&&&&&&&&&&&&&&&&&&&&&&&&&&&&&&&&&&",
"&&&&&&&&&&&&&&&&&&&&&&&&&&&&&&&&&&&&",
"&&&&&&&&&&&&&&&&&&&&&&&&&&&&&&&&&&&&",
"************************************",
"************************************",
"====================================",
"====================================",
"====================================",
"------------------------------------",
"------------------------------------",
"------------------------------------",
"------------------------------------"
};
