/* XPM */
static char *maximize_toggled_inactive_png[] = {
/* columns rows colors chars-per-pixel */
"36 36 8 1 ",
"  c #F6F5F4",
". c #A9ABAB",
"X c #929595",
"o c #A9ACAB",
"O c #EFEFEE",
"+ c #EFEEED",
"@ c #AAACAB",
"# c white",
/* pixels */
"                                    ",
"                                    ",
"                                    ",
"                                    ",
"                                    ",
"                                    ",
"                                    ",
"                                    ",
"                                    ",
"                                    ",
"                                    ",
"                                    ",
"                                    ",
"                                    ",
"              .XXXXXXo              ",
"              XXXXXXXX              ",
"              XXXXXXXX              ",
"              XXO  +XX              ",
"              XX    XX              ",
"              XX+  +XX              ",
"              XXXXXXXX              ",
"              oXXXXXX@              ",
"                                    ",
"                                    ",
"                                    ",
"                                    ",
"                                    ",
"                                    ",
"                                    ",
"                                    ",
"                                    ",
"                                    ",
"                                    ",
"                                    ",
"                                    ",
"                                    "
};
