/* XPM */
static char *maximize_active_png[] = {
/* columns rows colors chars-per-pixel */
"36 36 24 1 ",
"  c #E0DDDA",
". c #DFDCD9",
"X c #DFDCD8",
"o c #DFDBD8",
"O c #DEDBD7",
"+ c #575A5B",
"@ c #2E3436",
"# c #565B5C",
"$ c #DEDAD7",
"% c #E9E9E9",
"& c #F7F6F6",
"* c gray91",
"= c #E0DCD9",
"- c #DDDAD6",
"; c #D0CECA",
": c #DDD9D6",
"> c #5C6163",
", c #5D6263",
"< c #F1EFEE",
"1 c #DCD9D5",
"2 c #DCD8D5",
"3 c #DCD8D4",
"4 c #DBD7D3",
"5 c white",
/* pixels */
"                                    ",
"                                    ",
"                                    ",
"                                    ",
"....................................",
"....................................",
"....................................",
"XXXXXXXXXXXXXXXXXXXXXXXXXXXXXXXXXXXX",
"XXXXXXXXXXXXXXXXXXXXXXXXXXXXXXXXXXXX",
"oooooooooooooooooooooooooooooooooooo",
"oooooooooooooooooooooooooooooooooooo",
"oooooooooooooooooooooooooooooooooooo",
"OOOOOOOOOOOOOOOOOOOOOOOOOOOOOOOOOOOO",
"OOOOOOOOOOOOOOOOOOOOOOOOOOOOOOOOOOOO",
"OOOOOOOOOOOOOO+@@@@@@#OOOOOOOOOOOOOO",
"$$$$$$$$$$$$$$@@@@@@@@$$$$$$$$$$$$$$",
"$$$$$$$$$$$$$$@@%&&*@@$$$$$$$$$$$$$$",
"$$$$$$$$$$$$$$@@=$$=@@$$$$$$$$$$$$$$",
"--------------@@----@@--------------",
"--------------@@;--;@@--------------",
"--------------@@@@@@@@--------------",
"::::::::::::::>@@@@@@,::::::::::::::",
"::::::::::::::<&&&&&&<::::::::::::::",
"::::::::::::::::::::::::::::::::::::",
"111111111111111111111111111111111111",
"111111111111111111111111111111111111",
"111111111111111111111111111111111111",
"222222222222222222222222222222222222",
"222222222222222222222222222222222222",
"333333333333333333333333333333333333",
"333333333333333333333333333333333333",
"333333333333333333333333333333333333",
"444444444444444444444444444444444444",
"444444444444444444444444444444444444",
"444444444444444444444444444444444444",
"444444444444444444444444444444444444"
};
