/* XPM */
static char *maximize_pressed_png[] = {
/* columns rows colors chars-per-pixel */
"36 36 23 1 ",
"  c #E0DDDA",
". c #DAD6D3",
"X c #D2CCC8",
"o c #CDC7C2",
"O c #DBD8D4",
"+ c #CEC8C3",
"@ c #D3CECA",
"# c #D6D1CD",
"$ c #CFC9C4",
"% c #D4CFCB",
"& c #D5D0CC",
"* c #D1CCC8",
"= c #555859",
"- c #2E3436",
"; c #CAC6C3",
": c #C9C5C2",
"> c #555959",
", c #D1CBC7",
"< c #D7D3CF",
"1 c #DBD7D3",
"2 c #D3CEC9",
"3 c #D0CBC6",
"4 c white",
/* pixels */
"                                    ",
"  .XooooooooooooooooooooooooooooXO  ",
" X+@############################@$% ",
".+&##############################&+O",
"*@################################@*",
"o##################################o",
"o##################################o",
"o##################################o",
"o##################################o",
"o##################################o",
"o##################################o",
"o##################################o",
"o##################################o",
"o##################################o",
"o#############=------=#############o",
"o#############--------#############o",
"o#############--;##:--#############o",
"o#############--####--#############o",
"o#############--####--#############o",
"o#############--:##:--#############o",
"o#############--------#############o",
"o#############=------>#############o",
"o##################################o",
"o##################################o",
"o##################################o",
"o##################################o",
"o##################################o",
"o##################################o",
"o##################################o",
"o##################################o",
"o##################################o",
",@################################@,",
"<$&##############################&+<",
"12+@############################@+21",
"11<3oooooooooooooooooooooooooooo3<11",
"111111111111111111111111111111111111"
};
