/* XPM */
static char *menu_active_png[] = {
/* columns rows colors chars-per-pixel */
"36 36 85 1 ",
"  c #E0DDDA",
". c #DFDCD9",
"X c #DEDCD9",
"o c #DEDBD8",
"O c #D9D5D1",
"+ c #D1CCC8",
"@ c #CDC7C2",
"# c #DAD6D3",
"$ c #D9D4D1",
"% c #D5D0CC",
"& c #EDEBEA",
"* c white",
"= c #DBD7D4",
"- c #D8D4D0",
"; c #FAFAF9",
": c #F9F8F7",
"> c #F6F5F4",
", c #FAFAF8",
"< c #D9D5D2",
"1 c #D1CCC7",
"2 c #EDEAE9",
"3 c #F5F4F3",
"4 c #F8F7F7",
"5 c #F5F3F2",
"6 c #F4F3F1",
"7 c #F3F2F1",
"8 c gray73",
"9 c #43484A",
"0 c #44494A",
"q c #BABCBB",
"w c #44494B",
"e c #2E3436",
"r c #454A4C",
"t c #F3F1F0",
"y c #454A4B",
"u c #464B4C",
"i c #C0C2C1",
"p c #464B4D",
"a c #C1C3C2",
"s c #F2F1EF",
"d c #FBFBFA",
"f c #F5F4F2",
"g c #F2F0EF",
"h c #B9B8B9",
"j c #434749",
"k c #44484A",
"l c #F1EFEE",
"z c #45494B",
"x c #464A4C",
"c c #C0C1C1",
"v c #C1C2C2",
"b c #F0EFED",
"n c #F3F3F1",
"m c #F0EEEC",
"M c #B7B7B7",
"N c #424749",
"B c #B8B9B7",
"V c #EFEDEC",
"C c #BFC1C1",
"Z c #C0C2C2",
"A c #EFEDEB",
"S c #F3F1EF",
"D c #FAF9F9",
"F c #EEECEA",
"G c #EDEBE9",
"H c #D0CBC6",
"J c #E3E0DD",
"K c #D3CFCB",
"L c #D3CEC9",
"P c #EBE9E7",
"I c #EAE8E6",
"U c #D1CBC7",
"Y c #D5D1CD",
"T c #D6D1CD",
"R c #C8C2BB",
"E c #DFDBD8",
"W c #C5BEB8",
"Q c #D4D0CB",
"! c #D7D3CF",
"~ c #D4D1CD",
"^ c #CFCAC5",
"/ c #C5BFB9",
"( c #BFB8B1",
") c #D4D0CC",
"_ c #D2CECA",
/* pixels */
" ..XooooooooooooooooooooooooooooX.. ",
".oO+@@@@@@@@@@@@@@@@@@@@@@@@@@@@+#o.",
"o$%&****************************&%=o",
"-%;:>>>>>>>>>>>>>>>>>>>>>>>>>>>>:,%<",
"12>333333333333333333333333333333>21",
"@4333333333333333333333333333333334@",
"@5555555555555555555555555555555555@",
"@5555555555555555555555555555555555@",
"@6666666666666666666666666666666666@",
"@6666666666666666666666666666666666@",
"@777777777777777890q777777777777777@",
"@777777777777777weer777777777777777@",
"@tttttttttttttttyeeuttttttttttttttt@",
"@tttttttttttttttirpattttttttttttttt@",
"@sssssssssssssss3ddfsssssssssssssss@",
"@ssssssssssssssssssssssssssssssssss@",
"@ggggggggggggggghjk8ggggggggggggggg@",
"@gggggggggggggggweerggggggggggggggg@",
"@lllllllllllllllzeexlllllllllllllll@",
"@lllllllllllllllcrpvlllllllllllllll@",
"@bbbbbbbbbbbbbbbn;;7bbbbbbbbbbbbbbb@",
"@bbbbbbbbbbbbbbbbbbbbbbbbbbbbbbbbbb@",
"@mmmmmmmmmmmmmmmMN9Bmmmmmmmmmmmmmmm@",
"@mmmmmmmmmmmmmmm0eeymmmmmmmmmmmmmmm@",
"@VVVVVVVVVVVVVVVweerVVVVVVVVVVVVVVV@",
"@VVVVVVVVVVVVVVVCrpZVVVVVVVVVVVVVVV@",
"@AAAAAAAAAAAAAAASDDsAAAAAAAAAAAAAAA@",
"@AAAAAAAAAAAAAAAAAAAAAAAAAAAAAAAAAA@",
"@FFFFFFFFFFFFFFFFFFFFFFFFFFFFFFFFFF@",
"@FFFFFFFFFFFFFFFFFFFFFFFFFFFFFFFFFF@",
"@GGGGGGGGGGGGGGGGGGGGGGGGGGGGGGGGGG@",
"HJGGGGGGGGGGGGGGGGGGGGGGGGGGGGGGGGJH",
"KLPGGGGGGGGGGGGGGGGGGGGGGGGGGGGGGIUK",
"YTREGGGGGGGGGGGGGGGGGGGGGGGGGGGGEWQY",
"!~^/((((((((((((((((((((((((((((/^~!",
"O!Y)K__________________________K)Y!O"
};
