/* XPM */
static char *menu_prelight_png[] = {
/* columns rows colors chars-per-pixel */
"36 36 48 1 ",
"  c #E0DDDA",
". c #DFDCD9",
"X c #DEDCD9",
"o c #DEDBD8",
"O c #D9D5D1",
"+ c #D1CCC8",
"@ c #CDC7C2",
"# c #DAD6D3",
"$ c #D5D0CC",
"% c #EEECEB",
"& c white",
"* c #DCD8D4",
"= c #D8D4D0",
"- c #FBFBF9",
"; c #FAFAF9",
": c #F8F8F7",
"> c #D9D5D2",
", c #D1CCC7",
"< c #EDEBE9",
"1 c #BDBEBE",
"2 c #43484A",
"3 c #44494B",
"4 c #BEC0BF",
"5 c #2E3436",
"6 c #454A4C",
"7 c #464B4D",
"8 c #C2C4C3",
"9 c #C3C5C4",
"0 c #FDFDFC",
"q c #D0CBC6",
"w c #EBE9E6",
"e c #D3CFCB",
"r c #F5F5F4",
"t c #F4F4F3",
"y c #D2CDC9",
"u c #D5D1CD",
"i c #D9D4D1",
"p c #C9C4BE",
"a c #E5E3E0",
"s c #F7F6F5",
"d c #C6C0B9",
"f c #D7D3CF",
"g c #D4D1CD",
"h c #CFCAC5",
"j c #C5BFB9",
"k c #BFB8B1",
"l c #D4D0CC",
"z c #D2CECA",
/* pixels */
" ..XooooooooooooooooooooooooooooX.. ",
".oO+@@@@@@@@@@@@@@@@@@@@@@@@@@@@+#o.",
"oO$%&&&&&&&&&&&&&&&&&&&&&&&&&&&&%$*o",
"=$-;::::::::::::::::::::::::::::;;$>",
",<::::::::::::::::::::::::::::::::<,",
"@;::::::::::::::::::::::::::::::::;@",
"@::::::::::::::::::::::::::::::::::@",
"@::::::::::::::::::::::::::::::::::@",
"@::::::::::::::::::::::::::::::::::@",
"@::::::::::::::::::::::::::::::::::@",
"@:::::::::::::::1234:::::::::::::::@",
"@:::::::::::::::3556:::::::::::::::@",
"@:::::::::::::::6557:::::::::::::::@",
"@:::::::::::::::8679:::::::::::::::@",
"@:::::::::::::::;00;:::::::::::::::@",
"@::::::::::::::::::::::::::::::::::@",
"@:::::::::::::::1234:::::::::::::::@",
"@:::::::::::::::3556:::::::::::::::@",
"@:::::::::::::::6557:::::::::::::::@",
"@:::::::::::::::8679:::::::::::::::@",
"@:::::::::::::::;00;:::::::::::::::@",
"@::::::::::::::::::::::::::::::::::@",
"@:::::::::::::::1234:::::::::::::::@",
"@:::::::::::::::3556:::::::::::::::@",
"@:::::::::::::::6557:::::::::::::::@",
"@:::::::::::::::8679:::::::::::::::@",
"@:::::::::::::::;00;:::::::::::::::@",
"@::::::::::::::::::::::::::::::::::@",
"@::::::::::::::::::::::::::::::::::@",
"@::::::::::::::::::::::::::::::::::@",
"@::::::::::::::::::::::::::::::::::@",
"qw::::::::::::::::::::::::::::::::wq",
"e$r::::::::::::::::::::::::::::::tye",
"uipassssssssssssssssssssssssssssadfu",
"fghjkkkkkkkkkkkkkkkkkkkkkkkkkkkkjhgf",
"OfulezzzzzzzzzzzzzzzzzzzzzzzzzzelufO"
};
