/* XPM */
static char *shade_toggled_prelight_png[] = {
/* columns rows colors chars-per-pixel */
"36 36 44 1 ",
"  c #565B5D",
". c #A8AAAA",
"X c #A9ABAC",
"o c #AAACAD",
"O c #ACAFAF",
"+ c #AFB1B1",
"@ c #BFB8B1",
"# c #C5BFB9",
"$ c #C6C0B9",
"% c #C9C4BE",
"& c #CDC7C2",
"* c #CFCAC5",
"= c #D0CBC6",
"- c #D1CCC7",
"; c #D1CCC8",
": c #D2CDC9",
"> c #D2CECA",
", c #D3CFCB",
"< c #D4D0CC",
"1 c #D5D0CC",
"2 c #D4D1CD",
"3 c #D5D1CD",
"4 c #D7D3CF",
"5 c #D8D4D0",
"6 c #D9D4D1",
"7 c #D9D5D1",
"8 c #D9D5D2",
"9 c #DAD6D3",
"0 c #DCD8D4",
"q c #DEDBD8",
"w c #DEDCD9",
"e c #DFDCD9",
"r c #E0DDDA",
"t c #E5E3E0",
"y c #EBE9E6",
"u c #EDEBE9",
"i c #EEECEB",
"p c #F4F4F3",
"a c #F5F5F4",
"s c #F7F6F5",
"d c #F8F8F7",
"f c #FAFAF9",
"g c #FBFBF9",
"h c white",
/* pixels */
"reewqqqqqqqqqqqqqqqqqqqqqqqqqqqqweer",
"eq7;&&&&&&&&&&&&&&&&&&&&&&&&&&&&;9qe",
"q71ihhhhhhhhhhhhhhhhhhhhhhhhhhhhi10q",
"51gfddddddddddddddddddddddddddddff18",
"-uddddddddddddddddddddddddddddddddu-",
"&fddddddddddddddddddddddddddddddddf&",
"&dddddddddddddddddddddddddddddddddd&",
"&dddddddddddddddddddddddddddddddddd&",
"&dddddddddddddddddddddddddddddddddd&",
"&dddddddddddddddddddddddddddddddddd&",
"&dddddddddddddddddddddddddddddddddd&",
"&dddddddddddddddddddddddddddddddddd&",
"&dddddddddddddddddddddddddddddddddd&",
"&dddddddddddddddddddddddddddddddddd&",
"&dddddddddddddddddddddddddddddddddd&",
"&dddddddddddddddddddddddddddddddddd&",
"&ddddddddddddO        .dddddddddddd&",
"&ddddddddddddf+      ofdddddddddddd&",
"&dddddddddddddf+    ofddddddddddddd&",
"&ddddddddddddddf+  ofdddddddddddddd&",
"&dddddddddddddddfXXfddddddddddddddd&",
"&ddddddddddddddddffdddddddddddddddd&",
"&dddddddddddddddddddddddddddddddddd&",
"&dddddddddddddddddddddddddddddddddd&",
"&dddddddddddddddddddddddddddddddddd&",
"&dddddddddddddddddddddddddddddddddd&",
"&dddddddddddddddddddddddddddddddddd&",
"&dddddddddddddddddddddddddddddddddd&",
"&dddddddddddddddddddddddddddddddddd&",
"&dddddddddddddddddddddddddddddddddd&",
"&dddddddddddddddddddddddddddddddddd&",
"=yddddddddddddddddddddddddddddddddy=",
",1addddddddddddddddddddddddddddddp:,",
"36%tsssssssssssssssssssssssssssst$43",
"42*#@@@@@@@@@@@@@@@@@@@@@@@@@@@@#*24",
"743<,>>>>>>>>>>>>>>>>>>>>>>>>>>,<347"
};
