/* XPM */
static char *stick_pressed_png[] = {
/* columns rows colors chars-per-pixel */
"36 36 50 1 ",
"  c #2E3436",
". c #313739",
"X c #32383A",
"o c #34393A",
"O c #363C3D",
"+ c #373C3D",
"@ c #414547",
"# c #414647",
"$ c #424748",
"% c #494D4E",
"& c #5F6261",
"* c #5F6262",
"= c #606263",
"- c #717373",
"; c #727372",
": c #727474",
"> c #A7A5A3",
", c #A8A6A4",
"< c #B3B0AD",
"1 c #B3B1AE",
"2 c #B4B1AD",
"3 c #BAB3AB",
"4 c #BEB7B0",
"5 c #C3BDB7",
"6 c #C0BDB9",
"7 c #C2BEBB",
"8 c #C6BFB9",
"9 c #C7C0BA",
"0 c #C8C1BB",
"q c #C8C3BC",
"w c #CBC5BF",
"e c #CBC5C0",
"r c #CBC6C0",
"t c #CCC6C1",
"y c #CCC7C1",
"u c #CDC7C2",
"i c #CEC7C2",
"p c #CEC9C2",
"a c #CEC9C3",
"s c #CFCAC4",
"d c #CDC9C6",
"f c #CEC9C6",
"g c #CFCAC6",
"h c #D4D0CB",
"j c #D6D1CC",
"k c #D7D3CE",
"l c #D8D4D0",
"z c #DAD6D2",
"x c #DBD7D3",
"c c #E0DDDA",
/* pixels */
"cccccccccccccccccccccccccccccccccccc",
"cch533333333333333333333333333335kcc",
"cr4qssssssssssssssssssssssssssssq4uc",
"l0assssssssssssssssssssssssssssssp0z",
"tyssssssssssssssssssssssssssssssssyt",
"8ssssssssssssssssssssssssssssssssss8",
"8ssssssssssssssssssssssssssssssssss8",
"8ssssssssssssssssssssssssssssssssss8",
"8ssssssssssssssssssssssssssssssssss8",
"8ssssssssssssssssssssssssssssssssss8",
"8ssssssssssssssssssssssssssssssssss8",
"8ssssssssssssssssssssssssssssssssss8",
"8ssssssssssssss6;@.@-6sssssssssssss8",
"8sssssssssssss>O     +,ssssssssssss8",
"8ssssssssssss6O =2g2* +7sssssssssss8",
"8ssssssssssss; =sssss* :sssssssssss8",
"8ssssssssssss@ 1sssss< $sssssssssss8",
"8ssssssssssssX dsssssd osssssssssss8",
"8ssssssssssss# 1sssss< %sssssssssss8",
"8ssssssssssss; =sssss& ;sssssssssss8",
"8ssssssssssss6+ *<f<*  6sssssssssss8",
"8sssssssssssss,+     +,ssssssssssss8",
"8ssssssssssssss7:$o$:7sssssssssssss8",
"8ssssssssssssssssssssssssssssssssss8",
"8ssssssssssssssssssssssssssssssssss8",
"8ssssssssssssssssssssssssssssssssss8",
"8ssssssssssssssssssssssssssssssssss8",
"8ssssssssssssssssssssssssssssssssss8",
"8ssssssssssssssssssssssssssssssssss8",
"8ssssssssssssssssssssssssssssssssss8",
"8ssssssssssssssssssssssssssssssssss8",
"eyssssssssssssssssssssssssssssssssye",
"j0assssssssssssssssssssssssssssssa9j",
"xi0yssssssssssssssssssssssssssssy9ix",
"xxjw8888888888888888888888888888wjxx",
"xxxxxxxxxxxxxxxxxxxxxxxxxxxxxxxxxxxx"
};
