/* XPM */
static char *title_2_inactive_png[] = {
/* columns rows colors chars-per-pixel */
"1 47 3 1 ",
"  c #D5D0CC",
". c #F6F5F4",
"X c #FDFDFD",
/* pixels */
"X",
".",
".",
".",
".",
".",
".",
".",
".",
".",
".",
".",
".",
".",
".",
".",
".",
".",
".",
".",
".",
".",
".",
".",
".",
".",
".",
".",
".",
".",
".",
".",
".",
".",
".",
".",
".",
".",
".",
".",
".",
".",
".",
".",
".",
".",
" "
};
