/* XPM */
static char *title_4_active_png[] = {
/* columns rows colors chars-per-pixel */
"1 47 16 1 ",
"  c #BFB8B1",
". c #DAD6D2",
"X c #DBD7D3",
"o c #DCD8D4",
"O c #DCD8D5",
"+ c #DCD9D5",
"@ c #DDD9D6",
"# c #DDDAD6",
"$ c #DEDAD7",
"% c #DEDBD7",
"& c #DFDBD8",
"* c #DFDCD8",
"= c #DFDCD9",
"- c #E0DDDA",
"; c #E1DEDB",
": c #F9F8F8",
/* pixels */
":",
";",
";",
"-",
"-",
"-",
"-",
"-",
"-",
"=",
"=",
"=",
"*",
"*",
"&",
"&",
"&",
"%",
"%",
"%",
"$",
"$",
"$",
"#",
"#",
"#",
"@",
"@",
"@",
"+",
"+",
"+",
"O",
"O",
"o",
"o",
"o",
"X",
"X",
"X",
"X",
"X",
"X",
".",
".",
".",
" "
};
